<?xml version="1.0" encoding="UTF-8"?>
<svg width="50px" height="34px" viewBox="0 0 50 34" version="1.1" xmlns="http://www.w3.org/2000/svg" xmlns:xlink="http://www.w3.org/1999/xlink">
    <!-- Generator: Sketch 58 (84663) - https://sketch.com -->
    <title>ico-debit-card</title>
    <desc>Created with Sketch.</desc>
    <g id="ico-debit-card" stroke="none" stroke-width="1" fill="none" fill-rule="evenodd">
        <path d="M39.4270909,5 L11.3001818,5 C10.032,5 9,6.032 9,7.30018182 L9,26.6998182 C9,27.968 10.032,29 11.3001818,29 L39.4270909,29 C40.6952727,29 41.7272727,27.968 41.7272727,26.6998182 L41.7272727,7.30018182 C41.7272727,6.032 40.6952727,5 39.4270909,5 Z M40.6363636,26.6998182 C40.6363636,27.3663636 40.0941818,27.9090909 39.4270909,27.9090909 L11.3001818,27.9090909 C10.6330909,27.9090909 10.0909091,27.3663636 10.0909091,26.6998182 L10.0909091,7.30018182 C10.0909091,6.63363636 10.6330909,6.09090909 11.3001818,6.09090909 L39.4270909,6.09090909 C40.0941818,6.09090909 40.6363636,6.63363636 40.6363636,7.30018182 L40.6363636,26.6998182 Z" id="Shape" fill="#B6BDC6" fill-rule="nonzero"></path>
        <path d="M16.7954545,20 L12.7045455,20 C12.4531818,20 12.25,20.2443636 12.25,20.5454545 C12.25,20.8465455 12.4531818,21.0909091 12.7045455,21.0909091 L16.7954545,21.0909091 C17.0468182,21.0909091 17.25,20.8465455 17.25,20.5454545 C17.25,20.2443636 17.0468182,20 16.7954545,20 Z" id="Path" fill="#B6BDC6" fill-rule="nonzero"></path>
        <path d="M30.7954545,20 L26.7045455,20 C26.4531818,20 26.25,20.2443636 26.25,20.5454545 C26.25,20.8465455 26.4531818,21.0909091 26.7045455,21.0909091 L30.7954545,21.0909091 C31.0468182,21.0909091 31.25,20.8465455 31.25,20.5454545 C31.25,20.2443636 31.0468182,20 30.7954545,20 Z" id="Path-Copy" fill="#B6BDC6" fill-rule="nonzero"></path>
        <path d="M23.7954545,20 L19.7045455,20 C19.4531818,20 19.25,20.2443636 19.25,20.5454545 C19.25,20.8465455 19.4531818,21.0909091 19.7045455,21.0909091 L23.7954545,21.0909091 C24.0468182,21.0909091 24.25,20.8465455 24.25,20.5454545 C24.25,20.2443636 24.0468182,20 23.7954545,20 Z" id="Path" fill="#B6BDC6" fill-rule="nonzero"></path>
        <path d="M37.7954545,20 L33.7045455,20 C33.4531818,20 33.25,20.2443636 33.25,20.5454545 C33.25,20.8465455 33.4531818,21.0909091 33.7045455,21.0909091 L37.7954545,21.0909091 C38.0468182,21.0909091 38.25,20.8465455 38.25,20.5454545 C38.25,20.2443636 38.0468182,20 37.7954545,20 Z" id="Path-Copy-2" fill="#B6BDC6" fill-rule="nonzero"></path>
        <path d="M13.3409091,23.5454545 L12.7954545,23.5454545 C12.4938182,23.5454545 12.25,23.7898182 12.25,24.0909091 C12.25,24.392 12.4938182,24.6363636 12.7954545,24.6363636 L13.3409091,24.6363636 C13.6425455,24.6363636 13.8863636,24.392 13.8863636,24.0909091 C13.8863636,23.7898182 13.6425455,23.5454545 13.3409091,23.5454545 Z" id="Path" fill="#B6BDC6" fill-rule="nonzero"></path>
        <path d="M16.6363636,23.5454545 L15.5454545,23.5454545 C15.2438182,23.5454545 15,23.7898182 15,24.0909091 C15,24.392 15.2438182,24.6363636 15.5454545,24.6363636 L16.6363636,24.6363636 C16.938,24.6363636 17.1818182,24.392 17.1818182,24.0909091 C17.1818182,23.7898182 16.938,23.5454545 16.6363636,23.5454545 Z" id="Path" fill="#B6BDC6" fill-rule="nonzero"></path>
        <path d="M19.3636364,23.5454545 L18.8181818,23.5454545 C18.5165455,23.5454545 18.2727273,23.7898182 18.2727273,24.0909091 C18.2727273,24.392 18.5165455,24.6363636 18.8181818,24.6363636 L19.3636364,24.6363636 C19.6652727,24.6363636 19.9090909,24.392 19.9090909,24.0909091 C19.9090909,23.7898182 19.6652727,23.5454545 19.3636364,23.5454545 Z" id="Path" fill="#B6BDC6" fill-rule="nonzero"></path>
        <path d="M28.0909091,23.5454545 L27.5454545,23.5454545 C27.2438182,23.5454545 27,23.7898182 27,24.0909091 C27,24.392 27.2438182,24.6363636 27.5454545,24.6363636 L28.0909091,24.6363636 C28.3925455,24.6363636 28.6363636,24.392 28.6363636,24.0909091 C28.6363636,23.7898182 28.3925455,23.5454545 28.0909091,23.5454545 Z" id="Path-Copy-3" fill="#B6BDC6" fill-rule="nonzero"></path>
        <path d="M22.6363636,23.5454545 L21.5454545,23.5454545 C21.2438182,23.5454545 21,23.7898182 21,24.0909091 C21,24.392 21.2438182,24.6363636 21.5454545,24.6363636 L22.6363636,24.6363636 C22.938,24.6363636 23.1818182,24.392 23.1818182,24.0909091 C23.1818182,23.7898182 22.938,23.5454545 22.6363636,23.5454545 Z" id="Path" fill="#B6BDC6" fill-rule="nonzero"></path>
        <path d="M31.3636364,23.5454545 L30.2727273,23.5454545 C29.9710909,23.5454545 29.7272727,23.7898182 29.7272727,24.0909091 C29.7272727,24.392 29.9710909,24.6363636 30.2727273,24.6363636 L31.3636364,24.6363636 C31.6652727,24.6363636 31.9090909,24.392 31.9090909,24.0909091 C31.9090909,23.7898182 31.6652727,23.5454545 31.3636364,23.5454545 Z" id="Path-Copy-4" fill="#B6BDC6" fill-rule="nonzero"></path>
        <path d="M24.4309091,23.7036364 C24.3321818,23.8072727 24.2727273,23.9490909 24.2727273,24.0909091 C24.2727273,24.2327273 24.3321818,24.3745455 24.4309091,24.4781818 C24.534,24.5763636 24.6763636,24.6363636 24.8181818,24.6363636 C24.96,24.6363636 25.1018182,24.5763636 25.2054545,24.4781818 C25.3036364,24.3745455 25.3636364,24.2327273 25.3636364,24.0909091 C25.3636364,23.9490909 25.3036364,23.8072727 25.2054545,23.7036364 C24.9981818,23.5018182 24.6267273,23.5018182 24.4309091,23.7036364 Z" id="Path" fill="#B6BDC6" fill-rule="nonzero"></path>
        <path d="M33.1581818,23.7036364 C33.0594545,23.8072727 33,23.9490909 33,24.0909091 C33,24.2327273 33.0594545,24.3745455 33.1581818,24.4781818 C33.2612727,24.5763636 33.4036364,24.6363636 33.5454545,24.6363636 C33.6872727,24.6363636 33.8290909,24.5763636 33.9327273,24.4781818 C34.0309091,24.3745455 34.0909091,24.2327273 34.0909091,24.0909091 C34.0909091,23.9490909 34.0309091,23.8072727 33.9327273,23.7036364 C33.7254545,23.5018182 33.354,23.5018182 33.1581818,23.7036364 Z" id="Path-Copy-5" fill="#B6BDC6" fill-rule="nonzero"></path>
        <path d="M29.73,16.1363636 L33.0027273,16.1363636 L33.8154545,16.1363636 L37.0881818,16.1363636 C37.7661818,16.1363636 38.3181818,15.5843636 38.3181818,14.9063636 L38.3181818,10.5427273 L38.3181818,9.73 C38.3181818,9.052 37.7661818,8.5 37.0881818,8.5 L33.0027273,8.5 L29.73,8.5 C29.052,8.5 28.5,9.052 28.5,9.73 L28.5,14.9063636 C28.5,15.5843636 29.052,16.1363636 29.73,16.1363636 Z M31.7727273,12.8636364 L29.5909091,12.8636364 L29.5909091,11.7727273 L31.7727273,11.7727273 L31.7727273,12.8636364 Z M29.5909091,14.9063636 L29.5909091,13.9545455 L31.7727273,13.9545455 L31.7727273,14.9063636 C31.7727273,14.9538182 31.7814545,14.9990909 31.7869091,15.0454545 L29.73,15.0454545 C29.6530909,15.0454545 29.5909091,14.9832727 29.5909091,14.9063636 Z M37.2272727,12.8636364 L35.0454545,12.8636364 L35.0454545,11.9118182 C35.0454545,11.8349091 35.1076364,11.7727273 35.1845455,11.7727273 L37.0881818,11.7727273 C37.1356364,11.7727273 37.1809091,11.764 37.2272727,11.7585455 L37.2272727,12.8636364 L37.2272727,12.8636364 Z M37.0881818,15.0454545 L35.0312727,15.0454545 C35.0367273,14.9990909 35.0454545,14.9538182 35.0454545,14.9063636 L35.0454545,13.9545455 L37.2272727,13.9545455 L37.2272727,14.9063636 C37.2272727,14.9832727 37.1650909,15.0454545 37.0881818,15.0454545 Z M37.0881818,9.59090909 C37.1650909,9.59090909 37.2272727,9.65309091 37.2272727,9.73 L37.2272727,10.5427273 C37.2272727,10.6196364 37.1650909,10.6818182 37.0881818,10.6818182 L35.1845455,10.6818182 C34.5065455,10.6818182 33.9545455,11.2338182 33.9545455,11.9118182 L33.9545455,14.9063636 C33.9545455,14.9832727 33.8923636,15.0454545 33.8154545,15.0454545 L33.0027273,15.0454545 C32.9258182,15.0454545 32.8636364,14.9832727 32.8636364,14.9063636 L32.8636364,9.73 C32.8636364,9.65309091 32.9258182,9.59090909 33.0027273,9.59090909 L37.0881818,9.59090909 Z M29.73,9.59090909 L31.7869091,9.59090909 C31.7814545,9.63727273 31.7727273,9.68254545 31.7727273,9.73 L31.7727273,10.6818182 L29.5909091,10.6818182 L29.5909091,9.73 C29.5909091,9.65309091 29.6530909,9.59090909 29.73,9.59090909 Z" id="Shape" fill="#B6BDC6" fill-rule="nonzero"></path>
    </g>
</svg>