<?xml version="1.0" encoding="UTF-8"?>
<svg width="64px" height="64px" viewBox="0 0 64 64" version="1.1" xmlns="http://www.w3.org/2000/svg" xmlns:xlink="http://www.w3.org/1999/xlink">
    <title>ico-bank</title>
    <g id="ico-bank" stroke="none" stroke-width="1" fill="none" fill-rule="evenodd">
        <path d="M5.04309181,19.6798256 L31.4687488,4.64067673 C31.7569716,4.47655318 32.1020588,4.45603774 32.4044977,4.5791304 L32.5312131,4.64067673 L58.9568701,19.6798256 C59.380681,19.9206869 59.5888099,20.4170964 59.4641844,20.8883286 C59.3505069,21.3163401 58.9881817,21.6267889 58.5569086,21.6796968 L58.4256379,21.687703 L57.3514242,21.687703 L57.3514242,24.9103778 C57.3514242,25.460948 56.9367892,25.9152756 56.4024982,25.9773705 L56.2772105,25.9846027 L54.5584686,25.9846027 L54.5584686,29.2072775 C54.5584686,29.7578477 54.1438336,30.2121753 53.6095426,30.2742702 L53.4842549,30.2815024 L52.4100412,30.2815024 L52.4100412,47.6093016 L53.4842549,47.6093016 C54.0352091,47.6093016 54.4891979,48.0243026 54.5512425,48.558315 L54.5584686,48.6835265 L54.5584686,51.9062012 L56.2772105,51.9062012 C57.9880574,51.9062012 59.3924256,53.2470805 59.4941061,54.9328859 L59.4999994,55.128876 L59.4999994,58.4257757 C59.4999994,58.9767355 59.0852371,59.4307292 58.5509278,59.4927744 L58.4256379,59.4999994 L5.574324,59.4999994 C5.02336982,59.4999994 4.56928536,59.0853612 4.50722714,58.5510647 L4.4999994,58.4257757 L4.4999994,55.128876 C4.4999994,53.4180111 5.84057844,52.0137665 7.52671969,51.9120952 L7.72275139,51.9062012 L9.44149331,51.9062012 L9.44149331,48.6835265 C9.44149331,48.1329562 9.85612828,47.6786286 10.3904193,47.6165337 L10.515707,47.6093016 L11.5899207,47.6093016 L11.5899207,30.2815024 L10.515707,30.2815024 C9.96475282,30.2815024 9.51076399,29.8665012 9.44871943,29.3324889 L9.44149331,29.2072775 L9.44149331,25.9846027 L7.72275139,25.9846027 C7.17179721,25.9846027 6.71780837,25.5696015 6.65576382,25.0355893 L6.6485377,24.9103778 L6.6485377,21.687703 L5.574324,21.687703 C5.08715133,21.687703 4.66082277,21.3595608 4.53577753,20.8883286 C4.42248158,20.4599357 4.58453607,20.0107351 4.93303703,19.75164 L5.04309181,19.6798256 L31.4687488,4.64067673 L5.04309181,19.6798256 Z M56.2772105,54.0546511 L7.72275139,54.0546511 C7.17296616,54.0546511 6.71797537,54.4703758 6.65578171,55.0038196 L6.6485377,55.128876 L6.6485377,57.3515508 L57.3514242,57.3515508 L57.3514242,55.128876 C57.3514242,54.579085 56.9360656,54.1240895 56.4023432,54.0618952 L56.2772105,54.0546511 Z M52.4100412,49.7577514 L43.8163316,49.7577514 L43.8163316,51.9062012 L52.4100412,51.9062012 L52.4100412,49.7577514 Z M41.6679042,25.9846027 L38.4452631,25.9846027 L38.4452631,29.2072775 C38.4452631,29.7578477 38.0306282,30.2121753 37.4963372,30.2742702 L37.3710494,30.2815024 L36.2968357,30.2815024 L36.2968357,47.6093016 L37.3710494,47.6093016 C37.9220036,47.6093016 38.3759925,48.0243026 38.438037,48.558315 L38.4452631,48.6835265 L38.4452631,51.9062012 L41.6679042,51.9062012 L41.6679042,48.6835265 C41.6679042,48.1329562 42.0825392,47.6786286 42.6168302,47.6165337 L42.7421179,47.6093016 L43.8163316,47.6093016 L43.8163316,30.2815024 L42.7421179,30.2815024 C42.1911637,30.2815024 41.7371749,29.8665012 41.6751303,29.3324889 L41.6679042,29.2072775 L41.6679042,25.9846027 Z M25.5546988,25.9846027 L22.3320577,25.9846027 L22.3320577,29.2072775 C22.3320577,29.7578477 21.9174227,30.2121753 21.3831317,30.2742702 L21.257844,30.2815024 L20.1836303,30.2815024 L20.1836303,47.6093016 L21.257844,47.6093016 C21.8087982,47.6093016 22.262787,48.0243026 22.3248316,48.558315 L22.3320577,48.6835265 L22.3320577,51.9062012 L25.5546988,51.9062012 L25.5546988,48.6835265 C25.5546988,48.1329562 25.9693337,47.6786286 26.5036247,47.6165337 L26.6289125,47.6093016 L27.7031262,47.6093016 L27.7031262,30.2815024 L26.6289125,30.2815024 C26.0779583,30.2815024 25.6239694,29.8665012 25.5619249,29.3324889 L25.5546988,29.2072775 L25.5546988,25.9846027 Z M36.2968357,49.7577514 L27.7031262,49.7577514 L27.7031262,51.9062012 L36.2968357,51.9062012 L36.2968357,49.7577514 Z M20.1836303,49.7577514 L11.5899207,49.7577514 L11.5899207,51.9062012 L20.1836303,51.9062012 L20.1836303,49.7577514 Z M50.2616138,30.2815024 L45.964759,30.2815024 L45.964759,47.6093016 L50.2616138,47.6093016 L50.2616138,30.2815024 Z M18.0352029,30.2815024 L13.7383481,30.2815024 L13.7383481,47.6093016 L18.0352029,47.6093016 L18.0352029,30.2815024 Z M34.1484083,30.2815024 L29.8515536,30.2815024 L29.8515536,47.6093016 L34.1484083,47.6093016 L34.1484083,30.2815024 Z M20.1836303,25.9846027 L11.5899207,25.9846027 L11.5899207,28.1330525 L20.1836303,28.1330525 L20.1836303,25.9846027 Z M36.2968357,25.9846027 L27.7031262,25.9846027 L27.7031262,28.1330525 L36.2968357,28.1330525 L36.2968357,25.9846027 Z M52.4100412,25.9846027 L43.8163316,25.9846027 L43.8163316,28.1330525 L52.4100412,28.1330525 L52.4100412,25.9846027 Z M31.9999809,6.81010747 L9.6336768,19.5392532 L27.7031262,19.5392532 C28.2964614,19.5392532 28.7773399,20.0201366 28.7773399,20.6134781 C28.7773399,21.1640483 28.3627049,21.6183759 27.8284139,21.6804709 L27.7031262,21.687703 L8.79696509,21.687703 L8.79696509,23.8361529 L55.2029968,23.8361529 L55.2029968,21.687703 L36.2968357,21.687703 C35.7035005,21.687703 35.222622,21.2063999 35.222622,20.6134781 C35.222622,20.0625182 35.637257,19.6085246 36.171548,19.5464794 L36.2968357,19.5392532 L54.3662851,19.5392532 L31.9999809,6.81010747 Z M31.9999809,19.5392532 C32.5928965,19.5392532 33.0741946,20.0205563 33.0741946,20.6134781 C33.0741946,21.2063999 32.5928965,21.687703 31.9999809,21.687703 C31.4070654,21.687703 30.9257672,21.2063999 30.9257672,20.6134781 C30.9257672,20.0205563 31.4070654,19.5392532 31.9999809,19.5392532 Z M31.9999809,10.9454538 C33.7770493,10.9454538 35.222622,12.3910416 35.222622,14.1681286 C35.222622,15.9447958 33.7770493,17.3908033 31.9999809,17.3908033 C30.2229126,17.3908033 28.7773399,15.9447958 28.7773399,14.1681286 C28.7773399,12.3910416 30.2229126,10.9454538 31.9999809,10.9454538 Z M31.9999809,13.0939037 C31.4079045,13.0939037 30.9257672,13.5756264 30.9257672,14.1681286 C30.9257672,14.7602112 31.4079045,15.2423535 31.9999809,15.2423535 C32.5924769,15.2423535 33.0741946,14.7602112 33.0741946,14.1681286 C33.0741946,13.5756264 32.5924769,13.0939037 31.9999809,13.0939037 Z" id="Shape" fill="#005D9F" fill-rule="nonzero"></path>
    </g>
</svg>